		<rewardlist type="RATED_GROUPED">
			<group chance="100.0">
				<reward item_id="57" min="30807" max="71904" chance="70"/>
				<reward item_id="34992" min="9" max="27" chance="25.55"/>
			</group>
			<group chance="100.0">
				<reward item_id="34991" min="28" max="84" chance="8.067"/>
				<reward item_id="34990" min="20" max="60" chance="4.473"/>
				<reward item_id="35311" min="1" max="1" chance="1.160"/>
				<reward item_id="19255" min="1" max="1" chance="1.131"/>
				<reward item_id="19241" min="1" max="1" chance="0.5"/>
				<reward item_id="35300" min="1" max="1" chance="0.5"/>
				<reward item_id="19393" min="1" max="1" chance="0.05"/>
				<reward item_id="35435" min="1" max="1" chance="0.05"/>
				<reward item_id="19382" min="1" max="1" chance="0.01"/>
				<reward item_id="35424" min="1" max="1" chance="0.01"/>
			</group>
		</rewardlist>
		<rewardlist type="SWEEP">
			<reward item_id="19289" min="1" max="1" chance="0.05"/>
			<reward item_id="19275" min="1" max="1" chance="0.005"/>
		</rewardlist>
